com/softpath/entity/User.class
com/softpath/configuration/SpringBeans.class
com/softpath/configuration/SecurityConfiguration.class
com/softpath/configuration/CustomSuccessHandler.class
com/softpath/service/CustomUserDetailsService.class
com/softpath/controllers/HomeController.class
com/softpath/configuration/SecurityWebApplicationInitializer.class
com/softpath/configuration/HibernateConfiguration.class
com/softpath/validation/ValidatorUser.class
com/softpath/entity/Payments.class
com/softpath/service/UserDaoImpl.class
com/softpath/controllers/PDFController.class
com/softpath/service/UserDao.class
com/softpath/service/CreatePDF.class
com/softpath/configuration/WebXmlClass.class
